<?xml version="1.0" encoding="utf-8"?>
<!-- Generator: Adobe Illustrator 25.2.0, SVG Export Plug-In . SVG Version: 6.00 Build 0)  -->
<svg version="1.1" id="Layer_1" xmlns="http://www.w3.org/2000/svg" xmlns:xlink="http://www.w3.org/1999/xlink" x="0px" y="0px"
	 viewBox="0 0 706.5 682.6" style="enable-background:new 0 0 706.5 682.6;" xml:space="preserve">
<style type="text/css">
	.st0{fill:#DA617C;}
	.st1{fill:#EE7373;}
	.st2{fill:#F69A88;}
	.st3{fill:none;stroke:#284E98;stroke-width:8;stroke-linecap:round;stroke-linejoin:round;stroke-miterlimit:10;}
	.st4{opacity:0.5;}
	.st5{fill:none;stroke:#F69A88;stroke-width:8;stroke-linecap:round;stroke-linejoin:round;stroke-miterlimit:10;}
	.st6{fill:#FFD4CE;}
	.st7{fill:#CBE1EF;}
	.st8{fill:#A6C3D0;}
	.st9{fill:none;stroke:#FFD4CE;stroke-width:8;stroke-linecap:round;stroke-linejoin:round;stroke-miterlimit:10;}
	.st10{fill:#FFFFFF;}
	.st11{fill:#E16F60;}
	.st12{fill:#FBE2BF;}
	.st13{fill:#284E98;}
	.st14{opacity:0.35;}
	
		.st15{fill:none;stroke:#284E98;stroke-width:8;stroke-linecap:round;stroke-linejoin:round;stroke-miterlimit:10;stroke-dasharray:10,16;}
	.st16{fill:#E4F1F9;}
</style>
<g>
	<g>
		<circle class="st12" cx="353" cy="403" r="217.4"/>
	</g>
	<g>
		<path class="st13" d="M398.2,620c-2,0-3.9-1.4-4.3-3.5c-0.5-2.4,1-4.7,3.4-5.2c47-10,89.8-36,120.5-73.4
			c31.1-37.9,48.2-85.8,48.2-135c0-34.2-7.8-66.8-23.3-97c-14.8-28.8-36.3-54.3-62.3-73.7c-1.9-1.5-2.3-4.2-0.9-6.2
			c1.5-1.9,4.2-2.3,6.2-0.9c27.1,20.2,49.5,46.8,64.9,76.8c16.1,31.4,24.3,65.4,24.3,101c0,51.1-17.8,101.1-50.2,140.5
			c-31.9,38.9-76.5,66.1-125.5,76.5C398.8,620,398.5,620,398.2,620z"/>
	</g>
	<g>
		<path class="st13" d="M436.5,206.6c-0.6,0-1.1-0.1-1.7-0.3c-14.3-5.9-29.2-10.3-44.5-13c-2.4-0.4-4-2.7-3.6-5.1s2.7-4,5.1-3.6
			c15.9,2.8,31.4,7.4,46.3,13.6c2.2,0.9,3.3,3.5,2.4,5.8C439.9,205.6,438.2,206.6,436.5,206.6z"/>
	</g>
	<g>
		<path class="st13" d="M307.7,620.8c-0.3,0-0.6,0-0.9-0.1c-49-10.4-93.5-37.5-125.5-76.5c-32.4-39.5-50.2-89.4-50.2-140.5
			c0-35.6,8.2-69.6,24.3-101c15.4-30,37.8-56.5,64.9-76.8c1.9-1.5,4.7-1.1,6.2,0.9c1.5,1.9,1.1,4.7-0.9,6.2
			c-26,19.4-47.5,44.9-62.3,73.7c-15.5,30.2-23.3,62.8-23.3,97c0,49.1,17.1,97,48.2,135c30.7,37.4,73.4,63.5,120.5,73.4
			c2.4,0.5,3.9,2.8,3.4,5.2C311.6,619.4,309.8,620.8,307.7,620.8z"/>
	</g>
	<g>
		<path class="st13" d="M269.4,207.3c-1.7,0-3.4-1-4.1-2.7c-0.9-2.2,0.1-4.8,2.4-5.8c14.9-6.2,30.4-10.8,46.3-13.6
			c2.4-0.4,4.7,1.2,5.1,3.6c0.4,2.4-1.2,4.7-3.6,5.1c-15.2,2.7-30.2,7.1-44.4,13C270.5,207.2,270,207.3,269.4,207.3z"/>
	</g>
	<g>
		<polygon class="st2" points="510.8,82.8 461.1,124.1 475.5,133.1 449,177.7 502.7,133.7 488.3,124.7 		"/>
	</g>
	<g>
		<polygon class="st2" points="195,82.8 244.7,124.1 230.3,133.1 256.8,177.7 203.1,133.7 217.5,124.7 		"/>
	</g>
	<g>
		<g>
			<path class="st2" d="M636.8,646.9l1.2,1.3c0,0,0.5-1.1,1.2-3.1L636.8,646.9z"/>
		</g>
	</g>
	<g>
		<g>
			<g id="g48_24_" transform="translate(155.197863, 1.160267)">
				<g id="path50_24_">
					<path class="st0" d="M197.8,121L197.8,121l24.1-73.3h-48.2L197.8,121L197.8,121z"/>
				</g>
			</g>
			<g id="g56_24_" transform="translate(28.531199, 1.160800)">
				<g id="path58_24_">
					<path class="st1" d="M324.4,121l-24.1-73.3h-33.8L324.4,121L324.4,121z"/>
				</g>
			</g>
			<g id="g64_24_" transform="translate(0.088533, 0.255867)">
				<g id="path66_24_">
					<path class="st2" d="M295,48.7L295,48.7l-7.3,22.3c-0.7,2,0.1,4.3,1.8,5.5l63.4,45.5L295,48.7L295,48.7z"/>
				</g>
			</g>
			<g id="g72_24_" transform="translate(29.421866, 280.255593)">
				<g id="path74_24_">
					<path class="st1" d="M265.7-231.3h33.8l-14.5-44.2c-0.7-2.3-4-2.3-4.8,0L265.7-231.3L265.7-231.3z"/>
				</g>
			</g>
			<g id="g76_24_" transform="translate(247.197860, 1.160800)">
				<g id="path78_24_">
					<path class="st1" d="M105.8,121l24.1-73.3h33.8L105.8,121L105.8,121z"/>
				</g>
			</g>
			<g id="g80_24_" transform="translate(246.307061, 0.255867)">
				<g id="path82_24_">
					<path class="st2" d="M164.5,48.7L164.5,48.7l7.3,22.3c0.7,2-0.1,4.3-1.8,5.5l-63.4,45.5L164.5,48.7L164.5,48.7z"/>
				</g>
			</g>
			<g id="g84_24_" transform="translate(336.973725, 280.255593)">
				<g id="path86_24_">
					<path class="st1" d="M73.9-231.3H40.1l14.5-44.2c0.7-2.3,4-2.3,4.8,0L73.9-231.3L73.9-231.3z"/>
				</g>
			</g>
		</g>
	</g>
	<g>
		<g>
			<path class="st0" d="M564.2,468.9c-0.3,0.2-0.7,0.4-1,0.5L564.2,468.9z"/>
		</g>
	</g>
	<g>
		<g>
			<path class="st2" d="M72.1,646.9l-1.2,1.3c0,0-0.5-1.1-1.2-3.1L72.1,646.9z"/>
		</g>
		<g>
			<line class="st2" x1="77.9" y1="485.4" x2="85" y2="490.8"/>
		</g>
	</g>
	<g>
		<path class="st7" d="M398.6,420.5c54.6-3,46.2-31.6,46.2-31.6C429.3,269.4,464.4,212,464.4,212s-26.4,9.1-50.6,40.5l19.3,3.6
			c0,0-13.9,49-19.2,88.8c-2.9,21.7-31.9,24.9-38.7,3.8c-5.2-16.3-11.8-49.4-11.4-113.3c0,0,14.9,5.1,20.1,9.4
			c0,0-12.6-53.1-29.9-89.4c-17.2,36.2-29.9,89.4-29.9,89.4c5.2-4.2,20.1-9.4,20.1-9.4c0.3,63.9-6.1,97-11.4,113.3
			c-6.8,21.1-35.8,17.8-38.7-3.8c-5.3-39.8-19.2-88.8-19.2-88.8l19.3-3.6C270,221.1,243.6,212,243.6,212s35.1,57.4,19.5,176.9
			c0,0-8.4,28.6,46.2,31.6"/>
	</g>
	<g>
		<path class="st8" d="M385.1,411.4c0.3-1.7,14.6-21.6-3.9-32.4l0,0c-29.3-17.2-54.9,0.2-54.8,0.1c-18.5,10.8-4,31-3.6,33.2l15.1,12
			l16.1-12l12.3,12L385.1,411.4z"/>
	</g>
	<g>
		<path class="st7" d="M371.6,476.6l5.4-22.5c2.4-10.1,7.7-19.3,15-26.3v0c4.3-4.1,3.4-11.5-1.8-14.3l0,0c-4.2-2.3-9.4-1.3-12.6,2.3
			l-10.1,11.3c0,0-12.3-30.8-27.3,0l-10.1-11.3c-3.2-3.6-8.4-4.6-12.6-2.3l0,0c-5.2,2.8-6.1,10.2-1.8,14.3v0
			c7.3,7,12.5,16.2,15,26.3l5.4,22.5H371.6z"/>
	</g>
	<g>
		<path class="st8" d="M341.6,620.1c3.8,0.2,7.5,0.3,11.3,0.3c4.4,0,8.8-0.1,13.2-0.4V476.6h-24.5V620.1z"/>
	</g>
	<g>
		<g>
			<path class="st13" d="M398.7,422.9c-2.3,0-4.3-1.8-4.4-4.2c-0.1-2.4,1.7-4.5,4.2-4.6c25.3-1.4,35.4-8.4,39.5-14
				c4.3-6,2.8-11.8,2.7-12.1c-0.1-0.2-0.1-0.4-0.1-0.6c-11.7-90.4,4.9-145.4,14.4-167.9c-8.5,4.9-20.8,13.7-33,28l12,2.3
				c1.2,0.2,2.3,1,2.9,2c0.7,1.1,0.8,2.3,0.5,3.5c-0.1,0.5-13.9,49.2-19.1,88.2c-1.8,13.8-12.5,20.9-22.1,21.8
				c-11.6,1-21.4-5.7-25.1-17.2c-5.5-17.1-12-50.8-11.6-114.7c0-1.4,0.7-2.7,1.9-3.6c1.2-0.8,2.6-1,4-0.6c1,0.3,6.4,2.2,11.9,4.7
				c-4-15.1-12.5-45-23.1-69.8c-10.6,24.8-19.1,54.7-23.1,69.8c5.5-2.5,10.9-4.4,11.9-4.7c1.3-0.5,2.8-0.2,4,0.6
				c1.2,0.8,1.8,2.1,1.9,3.6c0.3,63.9-6.1,97.7-11.6,114.7c-3.7,11.5-13.5,18.2-25.1,17.2c-9.7-0.9-20.3-7.9-22.2-21.8
				c-5.2-39-18.9-87.7-19.1-88.2c-0.3-1.2-0.2-2.5,0.5-3.5c0.7-1.1,1.7-1.8,2.9-2l12-2.3c-10.5-12.3-21-20.4-28.4-25.1
				c-1.6-1.1-3.2-2-4.6-2.8c9.5,22.6,26.1,77.6,14.4,168c0,0.2-0.1,0.5-0.1,0.7c-0.1,0.2-1.6,6.1,2.8,12c4,5.6,14.2,12.6,39.5,14
				c2.4,0.1,4.3,2.2,4.2,4.6c-0.1,2.4-2.2,4.3-4.6,4.2c-23.3-1.3-38.8-7.3-46.3-17.8c-6-8.5-4.5-17-4-19
				c15.1-116.5-18.6-173.2-19-173.8c-1-1.6-0.8-3.6,0.3-5c1.2-1.4,3.1-2,4.9-1.4c1.1,0.4,28,9.9,52.7,41.9c0.9,1.2,1.2,2.8,0.6,4.3
				c-0.5,1.4-1.8,2.5-3.3,2.8l-14.6,2.7c3.6,13.2,13.7,52.2,18.1,84.8c1.3,9.6,8.5,13.7,14.2,14.2c5.8,0.5,13-2.1,15.9-11.1
				c5.1-15.9,11.1-47,11.2-105.6c-5,2-10.6,4.5-13,6.4c-1.5,1.2-3.5,1.3-5.1,0.3c-1.6-1-2.4-2.9-1.9-4.7c0.5-2.2,13-54,30.2-90.2
				c0.7-1.5,2.3-2.5,4-2.5l0,0c1.7,0,3.2,1,4,2.5c17.3,36.2,29.7,88,30.2,90.2c0.4,1.8-0.3,3.7-1.9,4.7c-1.6,1-3.7,0.9-5.1-0.3
				c-2.3-1.9-7.9-4.4-13-6.4c0.1,58.6,6.1,89.8,11.2,105.6c2.9,9,10.1,11.6,15.9,11.1c5.8-0.5,12.9-4.5,14.2-14.2
				c4.3-32.5,14.5-71.6,18.1-84.8l-14.6-2.7c-1.5-0.3-2.8-1.3-3.3-2.8c-0.5-1.4-0.3-3,0.6-4.3c24.7-32.1,51.5-41.5,52.7-41.9
				c1.8-0.6,3.7,0,4.9,1.4c1.2,1.4,1.3,3.5,0.3,5c-0.3,0.6-34,57.7-19,173.8c0.5,2,2,10.5-4,19c-7.4,10.5-23,16.5-46.3,17.8
				C398.9,422.9,398.8,422.9,398.7,422.9z"/>
		</g>
		<g>
			<path class="st13" d="M371.8,479h-35.3c-2,0-3.8-1.4-4.3-3.4l-5.4-22.5c-2.3-9.3-7-17.7-13.8-24.2c-3.1-2.9-4.5-7.2-4-11.5
				c0.6-4.3,3-7.9,6.7-9.9c6-3.3,13.4-1.9,18,3.3l5.9,6.7c4.5-7.2,9.5-10.7,15-10.5c6.4,0.2,11.2,5.8,14.1,10.4l5.8-6.5
				c4.6-5.2,12-6.5,18-3.3c3.7,2,6.1,5.6,6.7,9.9c0.6,4.3-0.9,8.6-4,11.5c-6.7,6.5-11.5,14.8-13.8,24.2l-5.4,22.5
				C375.6,477.6,373.8,479,371.8,479z M339.9,470.2h28.4l4.6-19.2c2.7-11,8.3-20.8,16.2-28.4c1-1,1.5-2.5,1.3-4
				c-0.2-1.5-1-2.7-2.2-3.3c-2.4-1.3-5.3-0.8-7.2,1.4L371,428c-1,1.1-2.5,1.7-4,1.4c-1.5-0.3-2.8-1.3-3.3-2.7
				c-1.7-4.3-5.9-10.8-9.4-10.9c0,0-0.1,0-0.1,0c-2.7,0-6.3,4.2-9.8,11.2c-0.6,1.3-1.9,2.2-3.4,2.4c-1.5,0.2-2.9-0.3-3.9-1.4
				l-10.1-11.3c-1.9-2.1-4.8-2.7-7.2-1.4c-1.2,0.6-2,1.9-2.2,3.3c-0.2,1.5,0.3,3,1.3,4c8,7.6,13.6,17.5,16.2,28.4L339.9,470.2z"/>
		</g>
		<g>
			<path class="st13" d="M323,414.8c-2,0-3.7-1.3-4.2-3.2c-0.1-0.3-0.4-0.8-0.6-1.3c-1.6-3.2-4.7-9.2-5.2-16
				c-0.7-8.9,3.3-16.1,11.5-20.9l0,0.1c5-3.2,30.3-17.1,59.2-0.2c8.2,4.8,12.2,12.1,11.5,21c-0.5,6.7-3.7,12.7-5.2,15.6
				c-0.2,0.4-0.4,0.7-0.5,1c-0.6,2.1-2.7,3.4-4.9,3c-2.4-0.4-4-2.7-3.6-5.1c0.2-0.9,0.5-1.7,1.3-3c6.5-12.4,5.6-19.8-3-24.8
				c-26.2-15.3-48.9-0.8-50-0.1c-0.1,0.1-0.2,0.2-0.4,0.2c-6,3.5-11.1,9.3-2.9,25.3c0.8,1.5,1.2,2.4,1.4,3.4
				c0.4,2.4-1.2,4.7-3.6,5.1C323.5,414.7,323.2,414.8,323,414.8z M318.6,411.1C318.6,411.1,318.6,411.1,318.6,411.1
				C318.6,411.1,318.6,411.1,318.6,411.1z M389.6,410.1C389.6,410.1,389.6,410.1,389.6,410.1C389.6,410.1,389.6,410.1,389.6,410.1z"
				/>
		</g>
		<g>
			<path class="st13" d="M341.8,624.8c-2.4,0-4.4-2-4.4-4.4V474.6c0-2.4,2-4.4,4.4-4.4c2.4,0,4.4,2,4.4,4.4v145.8
				C346.2,622.8,344.2,624.8,341.8,624.8z"/>
		</g>
		<g>
			<path class="st13" d="M366.3,624.8c-2.4,0-4.4-2-4.4-4.4V474.6c0-2.4,2-4.4,4.4-4.4c2.4,0,4.4,2,4.4,4.4v145.8
				C370.7,622.8,368.7,624.8,366.3,624.8z"/>
		</g>
	</g>
	<g>
		<g>
		</g>
	</g>
	<g>
		<path class="st13" d="M449,182.1c-1,0-2-0.4-2.9-1.1c-1.6-1.4-2-3.7-0.9-5.6l24.3-40.9l-10.8-6.8c-1.2-0.8-2-2-2-3.4
			c-0.1-1.4,0.5-2.8,1.6-3.7L508,79.5c1.6-1.3,4-1.4,5.6,0c1.6,1.3,2.1,3.6,1.1,5.5l-20.6,38.2L505,130c1.2,0.8,2,2,2,3.5
			c0.1,1.4-0.5,2.8-1.6,3.7l-53.6,43.9C451,181.7,450,182.1,449,182.1z M468.6,123.6l9.3,5.8c2,1.3,2.7,3.9,1.4,6l-13.7,23
			l29.5-24.2l-9.2-5.8c-2-1.2-2.6-3.8-1.5-5.8l11.8-21.9L468.6,123.6z"/>
	</g>
	<g>
		<path class="st13" d="M256.8,182.1c-1,0-2-0.3-2.8-1l-53.6-43.9c-1.1-0.9-1.7-2.3-1.6-3.7c0.1-1.4,0.9-2.7,2-3.5l10.9-6.9
			l-20.6-38.2c-1-1.9-0.5-4.2,1.1-5.5c1.6-1.3,4-1.3,5.6,0l49.7,41.2c1.1,0.9,1.7,2.3,1.6,3.7c-0.1,1.4-0.9,2.7-2,3.4l-10.8,6.8
			l24.3,40.9c1.1,1.8,0.7,4.2-0.9,5.6C258.8,181.7,257.8,182.1,256.8,182.1z M210.7,134.2l29.5,24.2l-13.7-23
			c-1.2-2.1-0.6-4.7,1.4-6l9.3-5.8l-27.6-22.9l11.8,21.9c1.1,2,0.4,4.6-1.5,5.8L210.7,134.2z"/>
	</g>
	<g>
		<path class="st13" d="M675.3,667.2c-17,0-25.6-3.9-33.9-7.7c-7.8-3.5-15.2-6.9-30.3-6.9s-22.5,3.3-30.3,6.9
			c-8.3,3.8-16.9,7.7-33.9,7.7c-17,0-25.6-3.9-33.9-7.7c-7.8-3.5-15.2-6.9-30.3-6.9s-22.5,3.3-30.3,6.9c-8.3,3.8-16.9,7.7-33.9,7.7
			c-17,0-25.6-3.9-33.9-7.7c-7.8-3.5-15.2-6.9-30.3-6.9c-15.1,0-22.5,3.3-30.3,6.9c-8.3,3.8-16.9,7.7-33.9,7.7
			c-17,0-25.6-3.9-33.9-7.7c-7.8-3.5-15.2-6.9-30.3-6.9c-15.1,0-22.5,3.3-30.3,6.9c-8.3,3.8-16.9,7.7-33.9,7.7
			c-17,0-25.6-3.9-33.9-7.7c-7.8-3.5-15.2-6.9-30.3-6.9c-15.1,0-22.5,3.3-30.3,6.9c-8.3,3.8-16.9,7.7-33.9,7.7c-2.4,0-4.4-2-4.4-4.4
			c0-2.4,2-4.4,4.4-4.4c15.1,0,22.5-3.3,30.3-6.9c8.3-3.8,16.9-7.7,33.9-7.7c17,0,25.6,3.9,33.9,7.7c7.8,3.5,15.2,6.9,30.3,6.9
			c15.1,0,22.5-3.3,30.3-6.9c8.3-3.8,16.9-7.7,33.9-7.7c17,0,25.6,3.9,33.9,7.7c7.8,3.5,15.2,6.9,30.3,6.9c15.1,0,22.5-3.3,30.3-6.9
			c8.3-3.8,16.9-7.7,33.9-7.7c17,0,25.6,3.9,33.9,7.7c7.8,3.5,15.2,6.9,30.3,6.9c15.1,0,22.5-3.3,30.3-6.9
			c8.3-3.8,16.9-7.7,33.9-7.7c17,0,25.6,3.9,33.9,7.7c7.8,3.5,15.2,6.9,30.3,6.9c15.1,0,22.5-3.3,30.3-6.9
			c8.3-3.8,16.9-7.7,33.9-7.7c17,0,25.6,3.9,33.9,7.7c7.8,3.5,15.2,6.9,30.3,6.9c2.4,0,4.4,2,4.4,4.4
			C679.7,665.2,677.7,667.2,675.3,667.2z"/>
	</g>
	<g>
		<g>
			<g>
				<path class="st10" d="M170.1,197.2c-1.2,0-2.3-0.5-3.2-1.4L126.2,153c-1.7-1.8-1.6-4.5,0.2-6.2c1.8-1.7,4.5-1.6,6.2,0.2
					l40.6,42.9c1.7,1.8,1.6,4.5-0.2,6.2C172.2,196.8,171.2,197.2,170.1,197.2z"/>
			</g>
			<g>
				<path class="st10" d="M142.1,253.8c-0.8,0-1.7-0.2-2.4-0.7l-39.4-26.1c-2-1.3-2.6-4.1-1.2-6.1c1.3-2,4.1-2.6,6.1-1.2l39.4,26.1
					c2,1.3,2.6,4.1,1.2,6.1C144.9,253.1,143.5,253.8,142.1,253.8z"/>
			</g>
			<g>
				<path class="st10" d="M82.5,214.3c-0.8,0-1.7-0.2-2.4-0.7l-17.3-11.4c-2-1.3-2.6-4.1-1.2-6.1c1.3-2,4.1-2.6,6.1-1.2l17.3,11.4
					c2,1.3,2.6,4.1,1.2,6.1C85.3,213.6,83.9,214.3,82.5,214.3z"/>
			</g>
			<g>
				<path class="st10" d="M54.5,344.7c-0.3,0-0.6,0-0.9-0.1l-42.7-9.1c-2.4-0.5-3.9-2.8-3.4-5.2c0.5-2.4,2.8-3.9,5.2-3.4l42.7,9.1
					c2.4,0.5,3.9,2.8,3.4,5.2C58.3,343.3,56.5,344.7,54.5,344.7z"/>
			</g>
			<g>
				<path class="st10" d="M97.2,353.8c-0.3,0-0.6,0-0.9-0.1l-20.6-4.4c-2.4-0.5-3.9-2.8-3.4-5.2c0.5-2.4,2.8-3.9,5.2-3.4l20.6,4.4
					c2.4,0.5,3.9,2.8,3.4,5.2C101.1,352.4,99.3,353.8,97.2,353.8z"/>
			</g>
			<g>
				<path class="st10" d="M111.4,306.3c-0.5,0-1-0.1-1.5-0.3l-64-23.6c-2.3-0.8-3.4-3.4-2.6-5.7c0.8-2.3,3.4-3.4,5.7-2.6l64,23.6
					c2.3,0.8,3.4,3.4,2.6,5.7C114.9,305.2,113.2,306.3,111.4,306.3z"/>
			</g>
			<g>
				<path class="st10" d="M271.9,114.4c-1.8,0-3.5-1.1-4.2-3l-17.4-49.8c-0.8-2.3,0.4-4.8,2.7-5.6c2.3-0.8,4.8,0.4,5.6,2.7
					l17.4,49.8c0.8,2.3-0.4,4.8-2.7,5.6C272.9,114.4,272.4,114.4,271.9,114.4z"/>
			</g>
			<g>
				<path class="st10" d="M283.6,147.8c-1.8,0-3.5-1.1-4.2-3l-4.8-13.8c-0.8-2.3,0.4-4.8,2.7-5.6c2.3-0.8,4.8,0.4,5.6,2.7l4.8,13.8
					c0.8,2.3-0.4,4.8-2.7,5.6C284.5,147.7,284,147.8,283.6,147.8z"/>
			</g>
		</g>
		<g>
			<g>
				<path class="st10" d="M538.2,197.2c-1.1,0-2.2-0.4-3-1.2c-1.8-1.7-1.8-4.5-0.2-6.2l40.6-42.9c1.7-1.8,4.5-1.8,6.2-0.2
					c1.8,1.7,1.8,4.5,0.2,6.2l-40.6,42.9C540.5,196.8,539.3,197.2,538.2,197.2z"/>
			</g>
			<g>
				<path class="st10" d="M566.1,253.8c-1.4,0-2.8-0.7-3.7-2c-1.3-2-0.8-4.8,1.2-6.1l39.4-26.1c2-1.3,4.8-0.8,6.1,1.2
					c1.3,2,0.8,4.8-1.2,6.1L568.5,253C567.8,253.5,566.9,253.8,566.1,253.8z"/>
			</g>
			<g>
				<path class="st10" d="M625.7,214.3c-1.4,0-2.8-0.7-3.7-2c-1.3-2-0.8-4.8,1.2-6.1l17.3-11.4c2-1.3,4.8-0.8,6.1,1.2
					c1.3,2,0.8,4.8-1.2,6.1l-17.3,11.4C627.4,214.1,626.5,214.3,625.7,214.3z"/>
			</g>
			<g>
				<path class="st10" d="M653.8,344.7c-2,0-3.9-1.4-4.3-3.5c-0.5-2.4,1-4.7,3.4-5.2l42.7-9.1c2.4-0.5,4.7,1,5.2,3.4
					c0.5,2.4-1,4.7-3.4,5.2l-42.7,9.1C654.4,344.7,654.1,344.7,653.8,344.7z"/>
			</g>
			<g>
				<path class="st10" d="M611,353.8c-2,0-3.9-1.4-4.3-3.5c-0.5-2.4,1-4.7,3.4-5.2l20.6-4.4c2.4-0.5,4.7,1,5.2,3.4
					c0.5,2.4-1,4.7-3.4,5.2l-20.6,4.4C611.6,353.8,611.3,353.8,611,353.8z"/>
			</g>
			<g>
				<path class="st10" d="M596.8,306.3c-1.8,0-3.5-1.1-4.1-2.9c-0.8-2.3,0.3-4.8,2.6-5.7l64-23.6c2.3-0.8,4.8,0.3,5.7,2.6
					c0.8,2.3-0.3,4.8-2.6,5.7l-64,23.6C597.9,306.2,597.3,306.3,596.8,306.3z"/>
			</g>
			<g>
				<path class="st10" d="M447.2,80.2c-0.4,0-0.9-0.1-1.3-0.2c-2.3-0.7-3.6-3.2-2.9-5.5l6.1-19.7c0.7-2.3,3.2-3.6,5.5-2.9
					c2.3,0.7,3.6,3.2,2.9,5.5l-6.1,19.7C450.8,79,449.1,80.2,447.2,80.2z"/>
			</g>
			<g>
				<path class="st10" d="M426,148.2c-0.4,0-0.9-0.1-1.3-0.2c-2.3-0.7-3.6-3.2-2.9-5.5l13.7-43.9c0.7-2.3,3.2-3.6,5.5-2.9
					c2.3,0.7,3.6,3.2,2.9,5.5l-13.7,43.9C429.6,147,427.9,148.2,426,148.2z"/>
			</g>
		</g>
	</g>
	<g>
		<g>
			<g>
				<path class="st10" d="M555.9,632.3c-1.2,0-2.3-0.5-3.2-1.4L535,612.2c-1.7-1.8-1.6-4.5,0.2-6.2c1.8-1.7,4.5-1.6,6.2,0.2
					l17.7,18.7c1.7,1.8,1.6,4.5-0.2,6.2C558.1,631.9,557,632.3,555.9,632.3z"/>
			</g>
			<g>
				<path class="st10" d="M605.5,583.2c-0.8,0-1.7-0.2-2.4-0.7l-39.4-26.1c-2-1.3-2.6-4.1-1.2-6.1c1.3-2,4.1-2.6,6.1-1.2l39.4,26.1
					c2,1.3,2.6,4.1,1.2,6.1C608.4,582.5,607,583.2,605.5,583.2z"/>
			</g>
			<g>
				<path class="st10" d="M643,608c-0.8,0-1.7-0.2-2.4-0.7l-17.3-11.4c-2-1.3-2.6-4.1-1.2-6.1c1.3-2,4.1-2.6,6.1-1.2l17.3,11.4
					c2,1.3,2.6,4.1,1.2,6.1C645.8,607.3,644.4,608,643,608z"/>
			</g>
			<g>
				<path class="st10" d="M696.5,475.2c-0.3,0-0.6,0-0.9-0.1l-42.7-9.1c-2.4-0.5-3.9-2.8-3.4-5.2c0.5-2.4,2.8-3.9,5.2-3.4l42.7,9.1
					c2.4,0.5,3.9,2.8,3.4,5.2C700.4,473.8,698.5,475.2,696.5,475.2z"/>
			</g>
			<g>
				<path class="st10" d="M631.6,461.4c-0.3,0-0.6,0-0.9-0.1l-20.6-4.4c-2.4-0.5-3.9-2.8-3.4-5.2c0.5-2.4,2.8-3.9,5.2-3.4l20.6,4.4
					c2.4,0.5,3.9,2.8,3.4,5.2C635.5,460,633.6,461.4,631.6,461.4z"/>
			</g>
			<g>
				<path class="st10" d="M660.8,528.2c-0.5,0-1-0.1-1.5-0.3l-64-23.6c-2.3-0.8-3.4-3.4-2.6-5.7c0.8-2.3,3.4-3.4,5.7-2.6l64,23.6
					c2.3,0.8,3.4,3.4,2.6,5.7C664.3,527.1,662.6,528.2,660.8,528.2z"/>
			</g>
		</g>
		<g>
			<g>
				<path class="st10" d="M152.3,632.3c-1.1,0-2.2-0.4-3-1.2c-1.8-1.7-1.8-4.5-0.2-6.2l17.7-18.7c1.7-1.8,4.5-1.8,6.2-0.2
					c1.8,1.7,1.8,4.5,0.2,6.2L155.5,631C154.7,631.9,153.5,632.3,152.3,632.3z"/>
			</g>
			<g>
				<path class="st10" d="M102.7,583.2c-1.4,0-2.8-0.7-3.7-2c-1.3-2-0.8-4.8,1.2-6.1l39.4-26.1c2-1.3,4.8-0.8,6.1,1.2
					c1.3,2,0.8,4.8-1.2,6.1l-39.4,26.1C104.4,583,103.5,583.2,102.7,583.2z"/>
			</g>
			<g>
				<path class="st10" d="M65.3,608c-1.4,0-2.8-0.7-3.7-2c-1.3-2-0.8-4.8,1.2-6.1l17.3-11.4c2-1.3,4.8-0.8,6.1,1.2
					c1.3,2,0.8,4.8-1.2,6.1l-17.3,11.4C66.9,607.7,66.1,608,65.3,608z"/>
			</g>
			<g>
				<path class="st10" d="M11.7,475.2c-2,0-3.9-1.4-4.3-3.5c-0.5-2.4,1-4.7,3.4-5.2l42.7-9.1c2.4-0.5,4.7,1,5.2,3.4
					c0.5,2.4-1,4.7-3.4,5.2l-42.7,9.1C12.3,475.2,12,475.2,11.7,475.2z"/>
			</g>
			<g>
				<path class="st10" d="M76.6,461.4c-2,0-3.9-1.4-4.3-3.5c-0.5-2.4,1-4.7,3.4-5.2l20.6-4.4c2.4-0.5,4.7,1,5.2,3.4
					c0.5,2.4-1,4.7-3.4,5.2l-20.6,4.4C77.2,461.4,76.9,461.4,76.6,461.4z"/>
			</g>
			<g>
				<path class="st10" d="M47.4,528.2c-1.8,0-3.5-1.1-4.1-2.9c-0.8-2.3,0.3-4.8,2.6-5.7l64-23.6c2.3-0.8,4.8,0.3,5.7,2.6
					c0.8,2.3-0.3,4.8-2.6,5.7l-64,23.6C48.4,528.1,47.9,528.2,47.4,528.2z"/>
			</g>
		</g>
		<g>
			<path class="st10" d="M702.1,407.1h-86c-2.4,0-4.4-2-4.4-4.4c0-2.4,2-4.4,4.4-4.4h86c2.4,0,4.4,2,4.4,4.4
				C706.5,405.1,704.6,407.1,702.1,407.1z"/>
		</g>
		<g>
			<path class="st10" d="M90.4,407.1h-86c-2.4,0-4.4-2-4.4-4.4c0-2.4,2-4.4,4.4-4.4h86c2.4,0,4.4,2,4.4,4.4
				C94.8,405.1,92.8,407.1,90.4,407.1z"/>
		</g>
	</g>
	<g>
		<g>
			<g>
				<g>
					<g id="g48_23_" transform="translate(155.197863, 1.160267)">
						<g id="path50_23_">
							<path class="st13" d="M198.8,125.4L198.8,125.4c-1.9,0-3.6-1.2-4.2-3l-23.8-72.4c-0.4-1.3-0.2-2.8,0.6-4
								c0.8-1.1,2.2-1.8,3.6-1.8h47.7c1.4,0,2.7,0.7,3.6,1.8c0.8,1.1,1.1,2.6,0.6,4L203,122.3C202.4,124.1,200.7,125.4,198.8,125.4z
								 M181.1,52.9l17.7,54l17.7-54H181.1z"/>
						</g>
					</g>
					<g id="g56_23_" transform="translate(28.531199, 1.160800)">
						<g id="path58_23_">
							<path class="st13" d="M325.5,125.4c-1.3,0-2.6-0.6-3.5-1.7l-57.2-72.4c-1-1.3-1.2-3.1-0.5-4.6c0.7-1.5,2.3-2.5,4-2.5h33.4
								c1.9,0,3.6,1.2,4.2,3l23.8,72.4c0.7,2-0.2,4.2-2.1,5.3C326.9,125.2,326.2,125.4,325.5,125.4z M277.3,52.9l36.2,45.8
								l-15.1-45.8H277.3z"/>
						</g>
					</g>
					<g id="g64_23_" transform="translate(0.088533, 0.255867)">
						<g id="path66_23_">
							<path class="st13" d="M353.9,126.3c-0.9,0-1.8-0.3-2.6-0.8l-62.6-45c-3.3-2.4-4.7-6.5-3.4-10.4l7.3-22c0.5-1.5,1.8-2.7,3.4-3
								c1.6-0.3,3.2,0.3,4.2,1.6l57.2,72.4c1.4,1.7,1.2,4.2-0.3,5.8C356.2,125.8,355,126.3,353.9,126.3z M298.3,58.6l-4.7,14.2
								c-0.1,0.2,0,0.4,0.2,0.5l37.3,26.8L298.3,58.6z"/>
						</g>
					</g>
					<g id="g72_23_" transform="translate(29.421866, 280.255593)">
						<g id="path74_23_">
							<path class="st13" d="M300.8-226.1h-33.4c-1.4,0-2.7-0.7-3.6-1.8c-0.8-1.1-1.1-2.6-0.6-4l14.3-43.6c1-2.8,3.6-4.7,6.5-4.7
								c0,0,0,0,0,0c3,0,5.6,1.9,6.5,4.7l14.4,43.6c0.4,1.3,0.2,2.8-0.6,4C303.5-226.8,302.2-226.1,300.8-226.1z M273.4-235h21.2
								L284-267.2L273.4-235z"/>
						</g>
					</g>
					<g id="g76_23_" transform="translate(247.197860, 1.160800)">
						<g id="path78_23_">
							<path class="st13" d="M106.8,125.4c-0.7,0-1.4-0.2-2.1-0.5c-1.9-1-2.8-3.2-2.1-5.3l23.8-72.4c0.6-1.8,2.3-3,4.2-3H164
								c1.7,0,3.2,1,4,2.5c0.7,1.5,0.5,3.3-0.5,4.6l-57.2,72.4C109.4,124.8,108.1,125.4,106.8,125.4z M133.8,52.9l-15.1,45.8
								l36.2-45.8H133.8z"/>
						</g>
					</g>
					<g id="g80_23_" transform="translate(246.307061, 0.255867)">
						<g id="path82_23_">
							<path class="st13" d="M107.7,126.3c-1.2,0-2.3-0.5-3.2-1.4c-1.5-1.6-1.6-4-0.3-5.8l57.2-72.4c1-1.3,2.6-1.9,4.2-1.6
								c1.6,0.3,2.9,1.4,3.4,3l7.3,22c1.3,3.9-0.1,8-3.4,10.4l-62.7,45C109.5,126,108.6,126.3,107.7,126.3z M163.3,58.6l-32.8,41.5
								l37.3-26.7c0.2-0.1,0.2-0.3,0.2-0.5L163.3,58.6z"/>
						</g>
					</g>
					<g id="g84_23_" transform="translate(336.973725, 280.255593)">
						<g id="path86_23_">
							<path class="st13" d="M74.2-226.1H40.8c-1.4,0-2.7-0.7-3.6-1.8c-0.8-1.1-1.1-2.6-0.6-4L51-275.6c0.9-2.8,3.5-4.7,6.5-4.7
								c0,0,0,0,0,0c3,0,5.6,1.9,6.5,4.7l14.4,43.7c0.4,1.3,0.2,2.8-0.6,4C77-226.8,75.6-226.1,74.2-226.1z M46.9-235h21.2
								l-10.6-32.3L46.9-235z"/>
						</g>
					</g>
				</g>
			</g>
		</g>
	</g>
	<g>
		<path class="st10" d="M494.8,338.6l1.3,6.8c0.6,3,2.9,5.3,5.8,5.8l6.6,1.3c3.1,0.6,3.1,5.1,0,5.7l-6.6,1.3
			c-2.9,0.6-5.2,2.9-5.8,5.8l-1.3,6.8c-0.6,3.1-5.1,3.1-5.7,0l-1.3-6.8c-0.6-3-2.9-5.3-5.8-5.8l-6.6-1.3c-3.1-0.6-3.1-5.1,0-5.7
			l6.6-1.3c2.9-0.6,5.2-2.9,5.8-5.8l1.3-6.8C489.7,335.5,494.2,335.5,494.8,338.6z"/>
	</g>
	<g>
		<path class="st10" d="M224.5,438l1.3,6.8c0.6,3,2.9,5.3,5.8,5.8l6.6,1.3c3.1,0.6,3.1,5.1,0,5.7l-6.6,1.3c-2.9,0.6-5.2,2.9-5.8,5.8
			l-1.3,6.8c-0.6,3.1-5.1,3.1-5.7,0l-1.3-6.8c-0.6-3-2.9-5.3-5.8-5.8l-6.6-1.3c-3.1-0.6-3.1-5.1,0-5.7l6.6-1.3
			c2.9-0.6,5.2-2.9,5.8-5.8l1.3-6.8C219.4,434.9,223.9,434.9,224.5,438z"/>
	</g>
	<g>
		<path class="st10" d="M447.5,495.2l1.3,6.8c0.6,3,2.9,5.3,5.8,5.8l6.6,1.3c3.1,0.6,3.1,5.1,0,5.7l-6.6,1.3
			c-2.9,0.6-5.2,2.9-5.8,5.8l-1.3,6.8c-0.6,3.1-5.1,3.1-5.7,0l-1.3-6.8c-0.6-3-2.9-5.3-5.8-5.8l-6.6-1.3c-3.1-0.6-3.1-5.1,0-5.7
			l6.6-1.3c2.9-0.6,5.2-2.9,5.8-5.8l1.3-6.8C442.4,492,446.9,492,447.5,495.2z"/>
	</g>
	<g>
		<circle class="st10" cx="492" cy="442.4" r="4.7"/>
	</g>
	<g>
		<circle class="st10" cx="314.4" cy="289.1" r="4.7"/>
	</g>
	<g>
		<circle class="st10" cx="269.4" cy="512" r="4.7"/>
	</g>
	<g>
		<circle class="st10" cx="202.7" cy="326.8" r="4.7"/>
	</g>
</g>
</svg>
